gold/questa_vcd_uvm_fuzzed_driver_sequencer/testbenches__uvm_driver_sequencer_env_fuzzed.sv/wave.vcd
$date
	Wed Jan 28 20:25:22 2026
$end
$version
	Questa Altera Starter FPGA Edition Version 2025.2
$end
$timescale
	1ns
$end

$scope module top $end

$scope module in $end
$var wire 1 ! clk $end
$var wire 1 " rst_n $end
$upscope $end

$scope module out $end
$var wire 1 # clk $end
$var wire 1 $ rst_n $end
$upscope $end

$scope module in $end
$var wire 1 ! clk $end
$var wire 1 " rst_n $end
$upscope $end

$scope module out $end
$var wire 1 # clk $end
$var wire 1 $ rst_n $end
$var wire 1 # clk $end
$var wire 1 $ rst_n $end
$upscope $end

$scope module uvm_fuzz_vcd_probe_inst $end
$var wire 1 % clk $end
$var wire 1 & rst_n $end
$var wire 1 ' in_valid $end
$var wire 1 ( in_data [7] $end
$var wire 1 ) in_data [6] $end
$var wire 1 * in_data [5] $end
$var wire 1 + in_data [4] $end
$var wire 1 , in_data [3] $end
$var wire 1 - in_data [2] $end
$var wire 1 . in_data [1] $end
$var wire 1 / in_data [0] $end
$var wire 1 0 in_ready_sampled $end
$var wire 1 1 out_valid $end
$var wire 1 2 out_data [7] $end
$var wire 1 3 out_data [6] $end
$var wire 1 4 out_data [5] $end
$var wire 1 5 out_data [4] $end
$var wire 1 6 out_data [3] $end
$var wire 1 7 out_data [2] $end
$var wire 1 8 out_data [1] $end
$var wire 1 9 out_data [0] $end
$var wire 1 : out_ready $end
$upscope $end

$scope module svtests_uvm_vcd_smoke_inst $end
$var reg 8 ; svtests_vcd_smoke_counter [7:0] $end
$var reg 1 < svtests_vcd_smoke_done $end
$upscope $end
$upscope $end
$enddefinitions $end
#0
$dumpvars
b0 ;
0<
x:
x9
x8
x7
x6
x5
x4
x3
x2
x1
00
0/
0.
0-
0,
0+
0*
0)
0(
0'
0&
0%
0$
0#
0"
0!
$end
#1
b1 ;
#2
b10 ;
#3
b11 ;
#4
b100 ;
#5
b101 ;
1!
1#
1%
0:
01
09
08
07
06
05
04
03
02
#6
b110 ;
#7
b111 ;
#8
b1000 ;
#9
b1001 ;
#10
b1010 ;
0!
0#
0%
#11
b1011 ;
#12
b1100 ;
#13
b1101 ;
#14
b1110 ;
#15
b1111 ;
1!
1#
1%
#16
b10000 ;
1<
#20
0!
0#
0%
#25
1!
1#
1%
#26
1"
1$
1&
#30
0!
0#
0%
#35
1!
1#
1%
1:
#40
0!
0#
0%
10
#45
1!
1#
1%
1'
1/
1.
#50
0!
0#
0%
#55
1!
1#
1%
11
0'
0/
0.
19
18
#60
0!
0#
0%
00
#65
1!
1#
1%
0:
01
1'
1.
1-
09
08
#70
0!
0#
0%
10
#75
1!
1#
1%
1:
11
0'
0.
0-
18
17
#80
0!
0#
0%
00
#85
1!
1#
1%
01
1'
1-
1,
08
07
#90
0!
0#
0%
10
#95
1!
1#
1%
0:
11
0'
0-
0,
17
16
#100
0!
0#
0%
00
#105
1!
1#
1%
1:
1'
1/
1,
1+
#110
0!
0#
0%
#115
1!
1#
1%
01
07
06
#120
0!
0#
0%
10
#125
1!
1#
1%
11
0'
0/
0,
0+
19
16
15
#130
0!
0#
0%
00
#135
1!
1#
1%
01
1'
1.
1+
1*
09
06
05
#140
0!
0#
0%
10
#145
1!
1#
1%
11
0'
0.
0+
0*
18
15
14
#150
0!
0#
0%
00
#155
1!
1#
1%
01
1'
1-
1*
1)
08
05
04
#160
0!
0#
0%
10
#165
1!
1#
1%
11
0'
0-
0*
0)
17
14
13
#170
0!
0#
0%
00
#175
1!
1#
1%
0:
01
1'
1/
1,
1)
1(
07
04
03
#180
0!
0#
0%
10
#185
1!
1#
1%
1:
11
0'
0/
0,
0)
0(
19
16
13
12
#190
0!
0#
0%
00
#195
1!
1#
1%
01
09
06
03
02
#200
0!
0#
0%
10
#205
1!
1#
1%
1'
1.
1+
1(
#210
0!
0#
0%
#215
1!
1#
1%
11
0'
0.
0+
0(
18
15
12
#220
0!
0#
0%
00
#225
1!
1#
1%
0:
01
08
05
02
#230
0!
0#
0%
10
#235
1!
1#
1%
1:
#240
0!
0#
0%
#245
1!
1#
1%
#250
0!
0#
0%
#255
1!
1#
1%
1'
1/
1-
1*
#260
0!
0#
0%
#265
1!
1#
1%
11
0'
0/
0-
0*
19
17
14
#270
0!
0#
0%
00
#275
1!
1#
1%
01
09
07
04
#280
0!
0#
0%
10
#285
1!
1#
1%
#290
0!
0#
0%
#295
1!
1#
1%
1'
1.
1,
1)
#300
0!
0#
0%
#305
1!
1#
1%
11
0'
0.
0,
0)
18
16
13
#310
0!
0#
0%
00
#315
1!
1#
1%
0:
01
1'
1/
1-
1+
1(
08
06
03
#320
0!
0#
0%
10
#325
1!
1#
1%
1:
11
0'
0/
0-
0+
0(
19
17
15
12
#330
0!
0#
0%
00
#335
1!
1#
1%
01
09
07
05
02
#340
0!
0#
0%
10
#345
1!
1#
1%
0:
1'
1/
1.
1,
1*
#350
0!
0#
0%
#355
1!
1#
1%
1:
11
0'
0/
0.
0,
0*
19
18
16
14
#360
0!
0#
0%
00
#365
1!
1#
1%
01
09
08
06
04
#370
0!
0#
0%
10
#375
1!
1#
1%
#380
0!
0#
0%
#385
1!
1#
1%
1'
1.
1-
1+
1)
#390
0!
0#
0%
#395
1!
1#
1%
0:
11
0'
0.
0-
0+
0)
18
17
15
13
#400
0!
0#
0%
00
#405
1!
1#
1%
1:
1'
1-
1,
1*
1(
#410
0!
0#
0%
#415
1!
1#
1%
01
08
07
05
03
#420
0!
0#
0%
10
#425
1!
1#
1%
11
0'
0-
0,
0*
0(
17
16
14
12
#430
0!
0#
0%
00
#435
1!
1#
1%
01
07
06
04
02
#440
0!
0#
0%
10
#445
1!
1#
1%
1'
1/
1,
1+
1)
#450
0!
0#
0%
#455
1!
1#
1%
11
0'
0/
0,
0+
0)
19
16
15
13
#460
0!
0#
0%
00
#465
1!
1#
1%
01
09
06
05
03
#470
0!
0#
0%
10
#475
1!
1#
1%
#480
0!
0#
0%
#485
1!
1#
1%
0:
1'
1.
1+
1*
1(
#490
0!
0#
0%
#495
1!
1#
1%
11
0'
0.
0+
0*
0(
18
15
14
12
#500
0!
0#
0%
00
#505
1!
1#
1%
#510
0!
0#
0%
#515
1!
1#
1%
1'
1-
1*
1)
#520
0!
0#
0%
#525
1!
1#
1%
1:
#530
0!
0#
0%
#535
1!
1#
1%
01
08
05
04
02
#540
0!
0#
0%
10
#545
1!
1#
1%
11
0'
0-
0*
0)
17
14
13
#550
0!
0#
0%
00
#555
1!
1#
1%
01
07
04
03
#560
0!
0#
0%
10
#565
1!
1#
1%
#570
0!
0#
0%
#575
1!
1#
1%
1'
1/
1,
1)
1(
#580
0!
0#
0%
#585
1!
1#
1%
11
0'
0/
0,
0)
0(
19
16
13
12
#590
0!
0#
0%
00
#595
1!
1#
1%
01
09
06
03
02
#600
0!
0#
0%
10
#605
1!
1#
1%
1'
1.
1+
1(
#610
0!
0#
0%
#615
1!
1#
1%
11
0'
0.
0+
0(
18
15
12
#620
0!
0#
0%
00
#625
1!
1#
1%
01
08
05
02
#630
0!
0#
0%
10
#635
1!
1#
1%
#640
0!
0#
0%
#645
1!
1#
1%
#650
0!
0#
0%
#655
1!
1#
1%
1'
1/
1-
1*
#660
0!
0#
0%
#665
1!
1#
1%
0:
11
0'
0/
0-
0*
19
17
14
#670
0!
0#
0%
00
#675
1!
1#
1%
#680
0!
0#
0%
#685
1!
1#
1%
#690
0!
0#
0%
#695
1!
1#
1%
1:
1'
1.
1,
1)
#700
0!
0#
0%
#705
1!
1#
1%
01
09
07
04
#710
0!
0#
0%
10
#715
1!
1#
1%
11
0'
0.
0,
0)
18
16
13
#720
0!
0#
0%
00
#725
1!
1#
1%
0:
01
1'
1/
1-
1+
1(
08
06
03
#730
0!
0#
0%
10
#735
1!
1#
1%
11
0'
0/
0-
0+
0(
19
17
15
12
#740
0!
0#
0%
00
#745
1!
1#
1%
#750
0!
0#
0%
#755
1!
1#
1%
1'
1/
1.
1,
1*
#760
0!
0#
0%
#765
1!
1#
1%
#770
0!
0#
0%
#775
1!
1#
1%
#780
0!
0#
0%
#785
1!
1#
1%
1:
#790
0!
0#
0%
#795
1!
1#
1%
01
09
07
05
02
#800
0!
0#
0%
10
#805
1!
1#
1%
0:
11
0'
0/
0.
0,
0*
19
18
16
14
#810
0!
0#
0%
00
#815
1!
1#
1%
1:
#820
0!
0#
0%
#825
1!
1#
1%
01
09
08
06
04
#830
0!
0#
0%
10
#835
1!
1#
1%
0:
1'
1.
1-
1+
1)
#840
0!
0#
0%
#845
1!
1#
1%
11
0'
0.
0-
0+
0)
18
17
15
13
#850
0!
0#
0%
00
#855
1!
1#
1%
1:
1'
1/
1-
1,
1*
1(
#860
0!
0#
0%
#865
1!
1#
1%
01
08
07
05
03
#870
0!
0#
0%
10
#875
1!
1#
1%
11
0'
0/
0-
0,
0*
0(
19
17
16
14
12
#880
0!
0#
0%
00
#885
1!
1#
1%
01
09
07
06
04
02
#890
0!
0#
0%
10
#895
1!
1#
1%
0:
1'
1.
1,
1+
1)
#900
0!
0#
0%
#905
1!
1#
1%
1:
11
0'
0.
0,
0+
0)
18
16
15
13
#910
0!
0#
0%
00
#915
1!
1#
1%
01
08
06
05
03
#920
0!
0#
0%
10
#925
1!
1#
1%
#930
0!
0#
0%
#935
1!
1#
1%
0:
1'
1/
1-
1+
1*
1(
#940
0!
0#
0%
#945
1!
1#
1%
1:
11
0'
0/
0-
0+
0*
0(
19
17
15
14
12
#950
0!
0#
0%
00
#955
1!
1#
1%
01
09
07
05
04
02
#960
0!
0#
0%
10
#965
1!
1#
1%
1'
1/
1.
1,
1*
1)
#970
0!
0#
0%
#975
1!
1#
1%
11
0'
0/
0.
0,
0*
0)
19
18
16
14
13
#980
0!
0#
0%
00
#985
1!
1#
1%
01
09
08
06
04
03
#990
0!
0#
0%
10
#995
1!
1#
1%
#1000
0!
0#
0%
#1005
1!
1#
1%
1'
1/
1.
1-
1+
1)
1(
#1010
0!
0#
0%
#1015
1!
1#
1%
11
0'
0/
0.
0-
0+
0)
0(
19
18
17
15
13
12
#1020
0!
0#
0%
00
#1025
1!
1#
1%
01
09
08
07
05
03
02
#1030
0!
0#
0%
10
#1035
1!
1#
1%
1'
1.
1-
1,
1*
1(
#1040
0!
0#
0%
#1045
1!
1#
1%
11
0'
0.
0-
0,
0*
0(
18
17
16
14
12
#1050
0!
0#
0%
00
#1055
1!
1#
1%
01
08
07
06
04
02
#1060
0!
0#
0%
10
#1065
1!
1#
1%
#1070
0!
0#
0%
#1075
1!
1#
1%
#1080
0!
0#
0%
#1085
1!
1#
1%
1'
1-
1,
1+
1)
#1090
0!
0#
0%
#1095
1!
1#
1%
11
0'
0-
0,
0+
0)
17
16
15
13
#1100
0!
0#
0%
00
#1105
1!
1#
1%
01
07
06
05
03
#1110
0!
0#
0%
10
#1115
1!
1#
1%
#1120
0!
0#
0%
#1125
1!
1#
1%
0:
1'
1/
1,
1+
1*
1(
#1130
0!
0#
0%
#1135
1!
1#
1%
11
0'
0/
0,
0+
0*
0(
19
16
15
14
12
#1140
0!
0#
0%
00
#1145
1!
1#
1%
#1150
0!
0#
0%
#1155
1!
1#
1%
#1160
0!
0#
0%
#1165
1!
1#
1%
1:
#1170
0!
0#
0%
#1175
1!
1#
1%
01
09
06
05
04
02
#1180
0!
0#
0%
10
#1185
1!
1#
1%
#1190
0!
0#
0%
#1195
1!
1#
1%
0:
#1200
0!
0#
0%
#1205
1!
1#
1%
1:
#1210
0!
0#
0%
#1215
1!
1#
1%
#1220
0!
0#
0%
#1225
1!
1#
1%
#1230
0!
0#
0%
#1235
1!
1#
1%
#1240
0!
0#
0%
#1245
1!
1#
1%
#1250
0!
0#
0%
#1255
1!
1#
1%
#1260
0!
0#
0%
#1265
1!
1#
1%
#1270
0!
0#
0%
#1275
1!
1#
1%
#1280
0!
0#
0%
#1285
1!
1#
1%
#1290
0!
0#
0%
#1295
1!
1#
1%
#1300
0!
0#
0%
#1305
1!
1#
1%
#1310
0!
0#
0%
#1315
1!
1#
1%
#1320
0!
0#
0%
#1325
1!
1#
1%
#1330
0!
0#
0%
#1335
1!
1#
1%
0:
#1340
0!
0#
0%
#1345
1!
1#
1%
1:
#1350
0!
0#
0%
#1355
1!
1#
1%
#1360
0!
0#
0%
#1365
1!
1#
1%
#1370
0!
0#
0%
#1375
1!
1#
1%
#1380
0!
0#
0%
#1385
1!
1#
1%
#1390
0!
0#
0%
#1395
1!
1#
1%
#1400
0!
0#
0%
#1405
1!
1#
1%
#1410
0!
0#
0%
#1415
1!
1#
1%
#1420
0!
0#
0%
#1425
1!
1#
1%
#1430
0!
0#
0%
#1435
1!
1#
1%
#1440
0!
0#
0%
#1445
1!
1#
1%
#1450
0!
0#
0%
#1455
1!
1#
1%
0:
#1460
0!
0#
0%
#1465
1!
1#
1%
1:
#1470
0!
0#
0%
#1475
1!
1#
1%
#1480
0!
0#
0%
#1485
1!
1#
1%
#1490
0!
0#
0%
#1495
1!
1#
1%
#1500
0!
0#
0%
#1505
1!
1#
1%
0:
#1510
0!
0#
0%
#1515
1!
1#
1%
#1520
0!
0#
0%
#1525
1!
1#
1%
#1530
0!
0#
0%
#1535
1!
1#
1%
1:
#1540
0!
0#
0%
#1545
1!
1#
1%
#1550
0!
0#
0%
#1555
1!
1#
1%
0:
#1560
0!
0#
0%
#1565
1!
1#
1%
#1570
0!
0#
0%
#1575
1!
1#
1%
1:
#1580
0!
0#
0%
#1585
1!
1#
1%
#1590
0!
0#
0%
#1595
1!
1#
1%
#1600
0!
0#
0%
#1605
1!
1#
1%
#1610
0!
0#
0%
#1615
1!
1#
1%
#1620
0!
0#
0%
#1625
1!
1#
1%
#1630
0!
0#
0%
#1635
1!
1#
1%
#1640
0!
0#
0%
#1645
1!
1#
1%
#1650
0!
0#
0%
#1655
1!
1#
1%
0:
#1660
0!
0#
0%
#1665
1!
1#
1%
1:
#1670
0!
0#
0%
#1675
1!
1#
1%
#1680
0!
0#
0%
#1685
1!
1#
1%
#1690
0!
0#
0%
#1695
1!
1#
1%
#1700
0!
0#
0%
#1705
1!
1#
1%
#1710
0!
0#
0%
#1715
1!
1#
1%
#1720
0!
0#
0%
#1725
1!
1#
1%
#1730
0!
0#
0%
#1735
1!
1#
1%
#1740
0!
0#
0%
#1745
1!
1#
1%
#1750
0!
0#
0%
#1755
1!
1#
1%
#1760
0!
0#
0%
#1765
1!
1#
1%
#1770
0!
0#
0%
#1775
1!
1#
1%
#1780
0!
0#
0%
#1785
1!
1#
1%
0:
#1790
0!
0#
0%
#1795
1!
1#
1%
1:
#1800
0!
0#
0%
#1805
1!
1#
1%
#1810
0!
0#
0%
#1815
1!
1#
1%
#1820
0!
0#
0%
#1825
1!
1#
1%
0:
#1830
0!
0#
0%
#1835
1!
1#
1%
#1840
0!
0#
0%
#1845
1!
1#
1%
1:
#1850
0!
0#
0%
#1855
1!
1#
1%
#1860
0!
0#
0%
#1865
1!
1#
1%
#1870
0!
0#
0%
#1875
1!
1#
1%
#1880
0!
0#
0%
#1885
1!
1#
1%
#1890
0!
0#
0%
#1895
1!
1#
1%
#1900
0!
0#
0%
#1905
1!
1#
1%
#1910
0!
0#
0%
#1915
1!
1#
1%
0:
#1920
0!
0#
0%
#1925
1!
1#
1%
#1930
0!
0#
0%
#1935
1!
1#
1%
1:
#1940
0!
0#
0%
#1945
1!
1#
1%
#1950
0!
0#
0%
#1955
1!
1#
1%
#1960
0!
0#
0%
#1965
1!
1#
1%
#1970
0!
0#
0%
#1975
1!
1#
1%
#1980
0!
0#
0%
#1985
1!
1#
1%
#1990
0!
0#
0%
#1995
1!
1#
1%
#2000
0!
0#
0%
#2005
1!
1#
1%
#2010
0!
0#
0%
#2015
1!
1#
1%
#2020
0!
0#
0%
#2025
1!
1#
1%
#2030
0!
0#
0%
#2035
1!
1#
1%
0:
#2040
0!
0#
0%
#2045
1!
1#
1%
1:
#2050
0!
0#
0%
#2055
1!
1#
1%
#2060
0!
0#
0%
#2065
1!
1#
1%
0:
#2070
0!
0#
0%
#2075
1!
1#
1%
#2080
0!
0#
0%
#2085
1!
1#
1%
1:
#2090
0!
0#
0%
#2095
1!
1#
1%
#2100
0!
0#
0%
#2105
1!
1#
1%
#2110
0!
0#
0%
#2115
1!
1#
1%
#2120
0!
0#
0%
#2125
1!
1#
1%
#2130
0!
0#
0%
#2135
1!
1#
1%
#2140
0!
0#
0%
#2145
1!
1#
1%
#2150
0!
0#
0%
#2155
1!
1#
1%
#2160
0!
0#
0%
#2165
1!
1#
1%
#2170
0!
0#
0%
#2175
1!
1#
1%
#2180
0!
0#
0%
#2185
1!
1#
1%
0:
#2190
0!
0#
0%
#2195
1!
1#
1%
1:
#2200
0!
0#
0%
#2205
1!
1#
1%
#2210
0!
0#
0%
#2215
1!
1#
1%
0:
#2220
0!
0#
0%
#2225
1!
1#
1%
1:
#2230
0!
0#
0%
#2235
1!
1#
1%
#2240
0!
0#
0%
#2245
1!
1#
1%
#2250
0!
0#
0%
#2255
1!
1#
1%
#2260
0!
0#
0%
#2265
1!
1#
1%
#2270
0!
0#
0%
#2275
1!
1#
1%
#2280
0!
0#
0%
#2285
1!
1#
1%
#2290
0!
0#
0%
#2295
1!
1#
1%
#2300
0!
0#
0%
#2305
1!
1#
1%
#2310
0!
0#
0%
#2315
1!
1#
1%
#2320
0!
0#
0%
#2325
1!
1#
1%
#2330
0!
0#
0%
#2335
1!
1#
1%
#2340
0!
0#
0%
#2345
1!
1#
1%
#2350
0!
0#
0%
#2355
1!
1#
1%
#2360
0!
0#
0%
#2365
1!
1#
1%
#2370
0!
0#
0%
#2375
1!
1#
1%
#2380
0!
0#
0%
#2385
1!
1#
1%
0:
#2390
0!
0#
0%
#2395
1!
1#
1%
#2400
0!
0#
0%
#2405
1!
1#
1%
1:
#2410
0!
0#
0%
#2415
1!
1#
1%
#2420
0!
0#
0%
#2425
1!
1#
1%
0:
#2430
0!
0#
0%
#2435
1!
1#
1%
1:
#2440
0!
0#
0%
#2445
1!
1#
1%
#2450
0!
0#
0%
#2455
1!
1#
1%
#2460
0!
0#
0%
#2465
1!
1#
1%
#2470
0!
0#
0%
#2475
1!
1#
1%
#2480
0!
0#
0%
#2485
1!
1#
1%
#2490
0!
0#
0%
#2495
1!
1#
1%
0:
#2500
0!
0#
0%
#2505
1!
1#
1%
1:
#2510
0!
0#
0%
#2515
1!
1#
1%
#2520
0!
0#
0%
#2525
1!
1#
1%
0:
#2530
0!
0#
0%
#2535
1!
1#
1%
1:
#2540
0!
0#
0%
#2545
1!
1#
1%
#2550
0!
0#
0%
#2555
1!
1#
1%
0:
#2560
0!
0#
0%
#2565
1!
1#
1%
1:
#2570
0!
0#
0%
#2575
1!
1#
1%
#2580
0!
0#
0%
#2585
1!
1#
1%
#2590
0!
0#
0%
#2595
1!
1#
1%
#2600
0!
0#
0%
#2605
1!
1#
1%
0:
#2610
0!
0#
0%
#2615
1!
1#
1%
#2620
0!
0#
0%
#2625
1!
1#
1%
#2630
0!
0#
0%
#2635
1!
1#
1%
1:
#2640
0!
0#
0%
#2645
1!
1#
1%
#2650
0!
0#
0%
#2655
1!
1#
1%
#2660
0!
0#
0%
#2665
1!
1#
1%
0:
#2670
0!
0#
0%
#2675
1!
1#
1%
1:
#2680
0!
0#
0%
#2685
1!
1#
1%
#2690
0!
0#
0%
#2695
1!
1#
1%
#2700
0!
0#
0%
#2705
1!
1#
1%
#2710
0!
0#
0%
#2715
1!
1#
1%
#2720
0!
0#
0%
#2725
1!
1#
1%
#2730
0!
0#
0%
#2735
1!
1#
1%
#2740
0!
0#
0%
#2745
1!
1#
1%
#2750
0!
0#
0%
#2755
1!
1#
1%
#2760
0!
0#
0%
#2765
1!
1#
1%
#2770
0!
0#
0%
#2775
1!
1#
1%
#2780
0!
0#
0%
#2785
1!
1#
1%
#2790
0!
0#
0%
#2795
1!
1#
1%
#2800
0!
0#
0%
#2805
1!
1#
1%
0:
#2810
0!
0#
0%
#2815
1!
1#
1%
#2820
0!
0#
0%
#2825
1!
1#
1%
1:
#2830
0!
0#
0%
#2835
1!
1#
1%
#2840
0!
0#
0%
#2845
1!
1#
1%
#2850
0!
0#
0%
#2855
1!
1#
1%
#2860
0!
0#
0%
#2865
1!
1#
1%
#2870
0!
0#
0%
#2875
1!
1#
1%
#2880
0!
0#
0%
#2885
1!
1#
1%
#2890
0!
0#
0%
#2895
1!
1#
1%
0:
#2900
0!
0#
0%
#2905
1!
1#
1%
#2910
0!
0#
0%
#2915
1!
1#
1%
1:
#2920
0!
0#
0%
#2925
1!
1#
1%
#2930
0!
0#
0%
#2935
1!
1#
1%
#2940
0!
0#
0%
#2945
1!
1#
1%
#2950
0!
0#
0%
#2955
1!
1#
1%
#2960
0!
0#
0%
#2965
1!
1#
1%
#2970
0!
0#
0%
#2975
1!
1#
1%
0:
#2980
0!
0#
0%
#2985
1!
1#
1%
1:
#2990
0!
0#
0%
#2995
1!
1#
1%
#3000
0!
0#
0%
#3005
1!
1#
1%
#3010
0!
0#
0%
#3015
1!
1#
1%
#3020
0!
0#
0%
#3025
1!
1#
1%
#3030
0!
0#
0%
#3035
1!
1#
1%
#3040
0!
0#
0%
#3045
1!
1#
1%
#3050
0!
0#
0%
#3055
1!
1#
1%
#3060
0!
0#
0%
#3065
1!
1#
1%
0:
#3070
0!
0#
0%
#3075
1!
1#
1%
#3080
0!
0#
0%
#3085
1!
1#
1%
1:
#3090
0!
0#
0%
#3095
1!
1#
1%
#3100
0!
0#
0%
#3105
1!
1#
1%
0:
#3110
0!
0#
0%
#3115
1!
1#
1%
#3120
0!
0#
0%
#3125
1!
1#
1%
#3130
0!
0#
0%
#3135
1!
1#
1%
1:
#3140
0!
0#
0%
#3145
1!
1#
1%
#3150
0!
0#
0%
#3155
1!
1#
1%
#3160
0!
0#
0%
#3165
1!
1#
1%
0:
#3170
0!
0#
0%
#3175
1!
1#
1%
#3180
0!
0#
0%
#3185
1!
1#
1%
#3190
0!
0#
0%
#3195
1!
1#
1%
1:
#3200
0!
0#
0%
#3205
1!
1#
1%
#3210
0!
0#
0%
#3215
1!
1#
1%
#3220
0!
0#
0%
#3225
1!
1#
1%
#3230
0!
0#
0%
#3235
1!
1#
1%
0:
#3240
0!
0#
0%
#3245
1!
1#
1%
#3250
0!
0#
0%
#3255
1!
1#
1%
1:
#3260
0!
0#
0%
#3265
1!
1#
1%
#3270
0!
0#
0%
#3275
1!
1#
1%
#3280
0!
0#
0%
#3285
1!
1#
1%
#3290
0!
0#
0%
#3295
1!
1#
1%
#3300
0!
0#
0%
#3305
1!
1#
1%
#3310
0!
0#
0%
#3315
1!
1#
1%
#3320
0!
0#
0%
#3325
1!
1#
1%
0:
#3330
0!
0#
0%
#3335
1!
1#
1%
#3340
0!
0#
0%
#3345
1!
1#
1%
1:
#3350
0!
0#
0%
#3355
1!
1#
1%
#3360
0!
0#
0%
#3365
1!
1#
1%
#3370
0!
0#
0%
#3375
1!
1#
1%
#3380
0!
0#
0%
#3385
1!
1#
1%
#3390
0!
0#
0%
#3395
1!
1#
1%
#3400
0!
0#
0%
#3405
1!
1#
1%
#3410
0!
0#
0%
#3415
1!
1#
1%
0:
#3420
0!
0#
0%
#3425
1!
1#
1%
#3430
0!
0#
0%
#3435
1!
1#
1%
1:
#3440
0!
0#
0%
#3445
1!
1#
1%
#3450
0!
0#
0%
#3455
1!
1#
1%
#3460
0!
0#
0%
#3465
1!
1#
1%
#3470
0!
0#
0%
#3475
1!
1#
1%
#3480
0!
0#
0%
#3485
1!
1#
1%
#3490
0!
0#
0%
#3495
1!
1#
1%
#3500
0!
0#
0%
#3505
1!
1#
1%
#3510
0!
0#
0%
#3515
1!
1#
1%
#3520
0!
0#
0%
#3525
1!
1#
1%
#3530
0!
0#
0%
#3535
1!
1#
1%
0:
#3540
0!
0#
0%
#3545
1!
1#
1%
#3550
0!
0#
0%
#3555
1!
1#
1%
#3560
0!
0#
0%
#3565
1!
1#
1%
1:
#3570
0!
0#
0%
#3575
1!
1#
1%
#3580
0!
0#
0%
#3585
1!
1#
1%
#3590
0!
0#
0%
#3595
1!
1#
1%
#3600
0!
0#
0%
#3605
1!
1#
1%
#3610
0!
0#
0%
#3615
1!
1#
1%
#3620
0!
0#
0%
#3625
1!
1#
1%
#3630
0!
0#
0%
#3635
1!
1#
1%
#3640
0!
0#
0%
#3645
1!
1#
1%
#3650
0!
0#
0%
#3655
1!
1#
1%
#3660
0!
0#
0%
#3665
1!
1#
1%
#3670
0!
0#
0%
#3675
1!
1#
1%
0:
#3680
0!
0#
0%
#3685
1!
1#
1%
#3690
0!
0#
0%
#3695
1!
1#
1%
#3700
0!
0#
0%
#3705
1!
1#
1%
1:
#3710
0!
0#
0%
#3715
1!
1#
1%
#3720
0!
0#
0%
#3725
1!
1#
1%
#3730
0!
0#
0%
#3735
1!
1#
1%
0:
#3740
0!
0#
0%
#3745
1!
1#
1%
#3750
0!
0#
0%
#3755
1!
1#
1%
1:
#3760
0!
0#
0%
#3765
1!
1#
1%
#3770
0!
0#
0%
#3775
1!
1#
1%
0:
#3780
0!
0#
0%
#3785
1!
1#
1%
#3790
0!
0#
0%
#3795
1!
1#
1%
1:
#3800
0!
0#
0%
#3805
1!
1#
1%
#3810
0!
0#
0%
#3815
1!
1#
1%
#3820
0!
0#
0%
#3825
1!
1#
1%
#3830
0!
0#
0%
#3835
1!
1#
1%
#3840
0!
0#
0%
#3845
1!
1#
1%
#3850
0!
0#
0%
#3855
1!
1#
1%
0:
#3860
0!
0#
0%
#3865
1!
1#
1%
1:
#3870
0!
0#
0%
#3875
1!
1#
1%
#3880
0!
0#
0%
#3885
1!
1#
1%
0:
#3890
0!
0#
0%
#3895
1!
1#
1%
#3900
0!
0#
0%
#3905
1!
1#
1%
1:
#3910
0!
0#
0%
#3915
1!
1#
1%
#3920
0!
0#
0%
#3925
1!
1#
1%
0:
#3930
0!
0#
0%
#3935
1!
1#
1%
#3940
0!
0#
0%
#3945
1!
1#
1%
#3950
0!
0#
0%
#3955
1!
1#
1%
1:
#3960
0!
0#
0%
#3965
1!
1#
1%
#3970
0!
0#
0%
#3975
1!
1#
1%
#3980
0!
0#
0%
#3985
1!
1#
1%
#3990
0!
0#
0%
#3995
1!
1#
1%
#4000
0!
0#
0%
#4005
1!
1#
1%
#4010
0!
0#
0%
#4015
1!
1#
1%
#4020
0!
0#
0%
#4025
1!
1#
1%
#4030
0!
0#
0%
#4035
1!
1#
1%
#4040
0!
0#
0%
#4045
1!
1#
1%
0:
#4050
0!
0#
0%
#4055
1!
1#
1%
1:
#4060
0!
0#
0%
#4065
1!
1#
1%
#4070
0!
0#
0%
#4075
1!
1#
1%
#4080
0!
0#
0%
#4085
1!
1#
1%
#4090
0!
0#
0%
#4095
1!
1#
1%
#4100
0!
0#
0%
#4105
1!
1#
1%
#4110
0!
0#
0%
#4115
1!
1#
1%
#4120
0!
0#
0%
#4125
1!
1#
1%
#4130
0!
0#
0%
#4135
1!
1#
1%
#4140
0!
0#
0%
#4145
1!
1#
1%
#4150
0!
0#
0%
#4155
1!
1#
1%
#4160
0!
0#
0%
#4165
1!
1#
1%
#4170
0!
0#
0%
#4175
1!
1#
1%
0:
#4180
0!
0#
0%
#4185
1!
1#
1%
1:
#4190
0!
0#
0%
#4195
1!
1#
1%
#4200
0!
0#
0%
#4205
1!
1#
1%
0:
#4210
0!
0#
0%
#4215
1!
1#
1%
#4220
0!
0#
0%
#4225
1!
1#
1%
#4230
0!
0#
0%
#4235
1!
1#
1%
#4240
0!
0#
0%
#4245
1!
1#
1%
1:
#4250
0!
0#
0%
#4255
1!
1#
1%
#4260
0!
0#
0%
#4265
1!
1#
1%
#4270
0!
0#
0%
#4275
1!
1#
1%
#4280
0!
0#
0%
#4285
1!
1#
1%
#4290
0!
0#
0%
#4295
1!
1#
1%
#4300
0!
0#
0%
#4305
1!
1#
1%
#4310
0!
0#
0%
#4315
1!
1#
1%
#4320
0!
0#
0%
#4325
1!
1#
1%
#4330
0!
0#
0%
#4335
1!
1#
1%
#4340
0!
0#
0%
#4345
1!
1#
1%
#4350
0!
0#
0%
#4355
1!
1#
1%
0:
#4360
0!
0#
0%
#4365
1!
1#
1%
1:
#4370
0!
0#
0%
#4375
1!
1#
1%
#4380
0!
0#
0%
#4385
1!
1#
1%
#4390
0!
0#
0%
#4395
1!
1#
1%
#4400
0!
0#
0%
#4405
1!
1#
1%
#4410
0!
0#
0%
#4415
1!
1#
1%
#4420
0!
0#
0%
#4425
1!
1#
1%
#4430
0!
0#
0%
#4435
1!
1#
1%
#4440
0!
0#
0%
#4445
1!
1#
1%
#4450
0!
0#
0%
#4455
1!
1#
1%
0:
#4460
0!
0#
0%
#4465
1!
1#
1%
#4470
0!
0#
0%
#4475
1!
1#
1%
#4480
0!
0#
0%
#4485
1!
1#
1%
#4490
0!
0#
0%
#4495
1!
1#
1%
1:
#4500
0!
0#
0%
#4505
1!
1#
1%
#4510
0!
0#
0%
#4515
1!
1#
1%
0:
#4520
0!
0#
0%
#4525
1!
1#
1%
1:
#4530
0!
0#
0%
#4535
1!
1#
1%
#4540
0!
0#
0%
#4545
1!
1#
1%
#4550
0!
0#
0%
#4555
1!
1#
1%
#4560
0!
0#
0%
#4565
1!
1#
1%
#4570
0!
0#
0%
#4575
1!
1#
1%
#4580
0!
0#
0%
#4585
1!
1#
1%
#4590
0!
0#
0%
#4595
1!
1#
1%
#4600
0!
0#
0%
#4605
1!
1#
1%
0:
#4610
0!
0#
0%
#4615
1!
1#
1%
#4620
0!
0#
0%
#4625
1!
1#
1%
1:
#4630
0!
0#
0%
#4635
1!
1#
1%
#4640
0!
0#
0%
