gold/questa_vcd_uvm_fuzzed_driver_sequencer/testbenches__uvm_driver_sequencer_env_fuzzed.sv/wave.vcd
$date
	Wed Jan 28 04:06:57 2026
$end
$version
	Questa Altera Starter FPGA Edition Version 2025.2
$end
$timescale
	1ns
$end

$scope module top $end

$scope module in $end
$var wire 1 ! clk $end
$var wire 1 " rst_n $end
$upscope $end

$scope module out $end
$var wire 1 # clk $end
$var wire 1 $ rst_n $end
$upscope $end

$scope module in $end
$var wire 1 ! clk $end
$var wire 1 " rst_n $end
$upscope $end

$scope module out $end
$var wire 1 # clk $end
$var wire 1 $ rst_n $end
$var wire 1 # clk $end
$var wire 1 $ rst_n $end
$upscope $end

$scope module uvm_fuzz_vcd_probe_inst $end
$var wire 1 % clk $end
$var wire 1 & rst_n $end
$var wire 1 ' in_valid $end
$var wire 1 ( in_data [7] $end
$var wire 1 ) in_data [6] $end
$var wire 1 * in_data [5] $end
$var wire 1 + in_data [4] $end
$var wire 1 , in_data [3] $end
$var wire 1 - in_data [2] $end
$var wire 1 . in_data [1] $end
$var wire 1 / in_data [0] $end
$var wire 1 0 in_ready_sampled $end
$var wire 1 1 out_valid $end
$var wire 1 2 out_data [7] $end
$var wire 1 3 out_data [6] $end
$var wire 1 4 out_data [5] $end
$var wire 1 5 out_data [4] $end
$var wire 1 6 out_data [3] $end
$var wire 1 7 out_data [2] $end
$var wire 1 8 out_data [1] $end
$var wire 1 9 out_data [0] $end
$var wire 1 : out_ready $end
$upscope $end

$scope module svtests_uvm_vcd_smoke_inst $end
$var reg 8 ; svtests_vcd_smoke_counter [7:0] $end
$var reg 1 < svtests_vcd_smoke_done $end
$upscope $end
$upscope $end
$enddefinitions $end
#0
$dumpvars
b0 ;
0<
x:
x9
x8
x7
x6
x5
x4
x3
x2
x1
00
0/
0.
0-
0,
0+
0*
0)
0(
0'
0&
0%
0$
0#
0"
0!
$end
#1
b1 ;
#2
b10 ;
#3
b11 ;
#4
b100 ;
#5
b101 ;
1!
1#
1%
0:
01
09
08
07
06
05
04
03
02
#6
b110 ;
#7
b111 ;
#8
b1000 ;
#9
b1001 ;
#10
b1010 ;
0!
0#
0%
#11
b1011 ;
#12
b1100 ;
#13
b1101 ;
#14
b1110 ;
#15
b1111 ;
1!
1#
1%
#16
b10000 ;
1<
#20
0!
0#
0%
#25
1!
1#
1%
#26
1"
1$
1&
#30
0!
0#
0%
#35
1!
1#
1%
1:
#40
0!
0#
0%
10
#45
1!
1#
1%
1'
1/
1.
#50
0!
0#
0%
#55
1!
1#
1%
11
0'
0/
0.
19
18
#60
0!
0#
0%
#65
1!
1#
1%
0:
01
1'
1.
1-
09
08
#70
0!
0#
0%
#75
1!
1#
1%
1:
11
0'
0.
0-
18
17
#80
0!
0#
0%
#85
1!
1#
1%
01
1'
1-
1,
08
07
#90
0!
0#
0%
#95
1!
1#
1%
0:
11
0'
0-
0,
17
16
#100
0!
0#
0%
#105
1!
1#
1%
1:
1'
1/
1,
1+
#110
0!
0#
0%
#115
1!
1#
1%
0'
0/
0,
0+
19
07
15
#120
0!
0#
0%
#125
1!
1#
1%
01
1'
1.
1+
1*
09
06
05
#130
0!
0#
0%
#135
1!
1#
1%
11
0'
0.
0+
0*
18
15
14
#140
0!
0#
0%
#145
1!
1#
1%
01
1'
1-
1*
1)
08
05
04
#150
0!
0#
0%
#155
1!
1#
1%
11
0'
0-
0*
0)
17
14
13
#160
0!
0#
0%
#165
1!
1#
1%
01
1'
1/
1,
1)
1(
07
04
03
#170
0!
0#
0%
#175
1!
1#
1%
0:
11
0'
0/
0,
0)
0(
19
16
13
12
#180
0!
0#
0%
#185
1!
1#
1%
1:
#190
0!
0#
0%
#195
1!
1#
1%
01
1'
1.
1+
1(
09
06
03
02
#200
0!
0#
0%
#205
1!
1#
1%
11
0'
0.
0+
0(
18
15
12
#210
0!
0#
0%
#215
1!
1#
1%
01
08
05
02
#220
0!
0#
0%
#225
1!
1#
1%
0:
#230
0!
0#
0%
#235
1!
1#
1%
1:
#240
0!
0#
0%
#245
1!
1#
1%
1'
1/
1-
1*
#250
0!
0#
0%
#255
1!
1#
1%
11
0'
0/
0-
0*
19
17
14
#260
0!
0#
0%
#265
1!
1#
1%
01
09
07
04
#270
0!
0#
0%
#275
1!
1#
1%
#280
0!
0#
0%
#285
1!
1#
1%
1'
1.
1,
1)
#290
0!
0#
0%
#295
1!
1#
1%
11
0'
0.
0,
0)
18
16
13
#300
0!
0#
0%
#305
1!
1#
1%
01
1'
1/
1-
1+
1(
08
06
03
#310
0!
0#
0%
#315
1!
1#
1%
0:
11
0'
0/
0-
0+
0(
19
17
15
12
#320
0!
0#
0%
#325
1!
1#
1%
1:
#330
0!
0#
0%
#335
1!
1#
1%
01
1'
1/
1.
1,
1*
09
07
05
02
#340
0!
0#
0%
#345
1!
1#
1%
0:
11
0'
0/
0.
0,
0*
19
18
16
14
#350
0!
0#
0%
#355
1!
1#
1%
1:
#360
0!
0#
0%
#365
1!
1#
1%
01
09
08
06
04
#370
0!
0#
0%
#375
1!
1#
1%
1'
1.
1-
1+
1)
#380
0!
0#
0%
#385
1!
1#
1%
11
0'
0.
0-
0+
0)
18
17
15
13
#390
0!
0#
0%
#395
1!
1#
1%
0:
01
1'
1-
1,
1*
1(
08
07
05
03
#400
0!
0#
0%
#405
1!
1#
1%
1:
11
0'
0-
0,
0*
0(
17
16
14
12
#410
0!
0#
0%
#415
1!
1#
1%
01
07
06
04
02
#420
0!
0#
0%
#425
1!
1#
1%
1'
1/
1,
1+
1)
#430
0!
0#
0%
#435
1!
1#
1%
11
0'
0/
0,
0+
0)
19
16
15
13
#440
0!
0#
0%
#445
1!
1#
1%
01
09
06
05
03
#450
0!
0#
0%
#455
1!
1#
1%
#460
0!
0#
0%
#465
1!
1#
1%
1'
1.
1+
1*
1(
#470
0!
0#
0%
#475
1!
1#
1%
11
0'
0.
0+
0*
0(
18
15
14
12
#480
0!
0#
0%
#485
1!
1#
1%
0:
01
08
05
04
02
#490
0!
0#
0%
#495
1!
1#
1%
1'
1-
1*
1)
#500
0!
0#
0%
#505
1!
1#
1%
11
0'
0-
0*
0)
17
14
13
#510
0!
0#
0%
#515
1!
1#
1%
#520
0!
0#
0%
#525
1!
1#
1%
1:
#530
0!
0#
0%
#535
1!
1#
1%
01
1'
1/
1,
1)
1(
07
04
03
#540
0!
0#
0%
#545
1!
1#
1%
11
0'
0/
0,
0)
0(
19
16
13
12
#550
0!
0#
0%
#555
1!
1#
1%
01
09
06
03
02
#560
0!
0#
0%
#565
1!
1#
1%
1'
1.
1+
1(
#570
0!
0#
0%
#575
1!
1#
1%
11
0'
0.
0+
0(
18
15
12
#580
0!
0#
0%
#585
1!
1#
1%
01
08
05
02
#590
0!
0#
0%
#595
1!
1#
1%
#600
0!
0#
0%
#605
1!
1#
1%
#610
0!
0#
0%
#615
1!
1#
1%
1'
1/
1-
1*
#620
0!
0#
0%
#625
1!
1#
1%
11
0'
0/
0-
0*
19
17
14
#630
0!
0#
0%
#635
1!
1#
1%
01
09
07
04
#640
0!
0#
0%
#645
1!
1#
1%
#650
0!
0#
0%
#655
1!
1#
1%
1'
1.
1,
1)
#660
0!
0#
0%
#665
1!
1#
1%
0:
11
0'
0.
0,
0)
18
16
13
#670
0!
0#
0%
#675
1!
1#
1%
1'
1/
1-
1+
1(
#680
0!
0#
0%
#685
1!
1#
1%
0'
0/
0-
0+
0(
#690
0!
0#
0%
#695
1!
1#
1%
1:
#700
0!
0#
0%
#705
1!
1#
1%
1'
1/
1.
1,
1*
19
08
17
06
15
03
12
#710
0!
0#
0%
#715
1!
1#
1%
0'
0/
0.
0,
0*
18
07
16
05
14
02
#720
0!
0#
0%
#725
1!
1#
1%
0:
01
09
08
06
04
#730
0!
0#
0%
#735
1!
1#
1%
#740
0!
0#
0%
#745
1!
1#
1%
1'
1.
1-
1+
1)
#750
0!
0#
0%
#755
1!
1#
1%
11
0'
0.
0-
0+
0)
18
17
15
13
#760
0!
0#
0%
#765
1!
1#
1%
1'
1/
1-
1,
1*
1(
#770
0!
0#
0%
#775
1!
1#
1%
0'
0/
0-
0,
0*
0(
#780
0!
0#
0%
#785
1!
1#
1%
1:
#790
0!
0#
0%
#795
1!
1#
1%
1'
1.
1,
1+
1)
19
08
16
05
14
03
12
#800
0!
0#
0%
#805
1!
1#
1%
0:
0'
0.
0,
0+
0)
09
18
07
15
04
13
02
#810
0!
0#
0%
#815
1!
1#
1%
1:
#820
0!
0#
0%
#825
1!
1#
1%
01
08
06
05
03
#830
0!
0#
0%
#835
1!
1#
1%
0:
1'
1/
1-
1+
1*
1(
#840
0!
0#
0%
#845
1!
1#
1%
11
0'
0/
0-
0+
0*
0(
19
17
15
14
12
#850
0!
0#
0%
#855
1!
1#
1%
1:
#860
0!
0#
0%
#865
1!
1#
1%
01
1'
1/
1.
1,
1*
1)
09
07
05
04
02
#870
0!
0#
0%
#875
1!
1#
1%
11
0'
0/
0.
0,
0*
0)
19
18
16
14
13
#880
0!
0#
0%
#885
1!
1#
1%
01
09
08
06
04
03
#890
0!
0#
0%
#895
1!
1#
1%
0:
#900
0!
0#
0%
#905
1!
1#
1%
1:
1'
1/
1.
1-
1+
1)
1(
#910
0!
0#
0%
#915
1!
1#
1%
11
0'
0/
0.
0-
0+
0)
0(
19
18
17
15
13
12
#920
0!
0#
0%
#925
1!
1#
1%
01
09
08
07
05
03
02
#930
0!
0#
0%
#935
1!
1#
1%
0:
1'
1.
1-
1,
1*
1(
#940
0!
0#
0%
#945
1!
1#
1%
1:
11
0'
0.
0-
0,
0*
0(
18
17
16
14
12
#950
0!
0#
0%
#955
1!
1#
1%
01
08
07
06
04
02
#960
0!
0#
0%
#965
1!
1#
1%
#970
0!
0#
0%
#975
1!
1#
1%
#980
0!
0#
0%
#985
1!
1#
1%
1'
1-
1,
1+
1)
#990
0!
0#
0%
#995
1!
1#
1%
11
0'
0-
0,
0+
0)
17
16
15
13
#1000
0!
0#
0%
#1005
1!
1#
1%
01
07
06
05
03
#1010
0!
0#
0%
#1015
1!
1#
1%
#1020
0!
0#
0%
#1025
1!
1#
1%
1'
1/
1,
1+
1*
1(
#1030
0!
0#
0%
#1035
1!
1#
1%
11
0'
0/
0,
0+
0*
0(
19
16
15
14
12
#1040
0!
0#
0%
#1045
1!
1#
1%
01
09
06
05
04
02
#1050
0!
0#
0%
00
#1055
1!
1#
1%
#1060
0!
0#
0%
#1065
1!
1#
1%
#1070
0!
0#
0%
#1075
1!
1#
1%
#1080
0!
0#
0%
#1085
1!
1#
1%
#1090
0!
0#
0%
#1095
1!
1#
1%
#1100
0!
0#
0%
#1105
1!
1#
1%
#1110
0!
0#
0%
#1115
1!
1#
1%
#1120
0!
0#
0%
#1125
1!
1#
1%
0:
#1130
0!
0#
0%
#1135
1!
1#
1%
#1140
0!
0#
0%
#1145
1!
1#
1%
#1150
0!
0#
0%
#1155
1!
1#
1%
#1160
0!
0#
0%
#1165
1!
1#
1%
1:
#1170
0!
0#
0%
#1175
1!
1#
1%
#1180
0!
0#
0%
#1185
1!
1#
1%
#1190
0!
0#
0%
#1195
1!
1#
1%
0:
#1200
0!
0#
0%
#1205
1!
1#
1%
1:
#1210
0!
0#
0%
#1215
1!
1#
1%
#1220
0!
0#
0%
#1225
1!
1#
1%
#1230
0!
0#
0%
#1235
1!
1#
1%
#1240
0!
0#
0%
#1245
1!
1#
1%
#1250
0!
0#
0%
#1255
1!
1#
1%
#1260
0!
0#
0%
#1265
1!
1#
1%
#1270
0!
0#
0%
#1275
1!
1#
1%
#1280
0!
0#
0%
#1285
1!
1#
1%
#1290
0!
0#
0%
#1295
1!
1#
1%
#1300
0!
0#
0%
#1305
1!
1#
1%
#1310
0!
0#
0%
#1315
1!
1#
1%
#1320
0!
0#
0%
#1325
1!
1#
1%
#1330
0!
0#
0%
#1335
1!
1#
1%
0:
#1340
0!
0#
0%
#1345
1!
1#
1%
1:
#1350
0!
0#
0%
#1355
1!
1#
1%
#1360
0!
0#
0%
#1365
1!
1#
1%
#1370
0!
0#
0%
#1375
1!
1#
1%
#1380
0!
0#
0%
#1385
1!
1#
1%
#1390
0!
0#
0%
#1395
1!
1#
1%
#1400
0!
0#
0%
#1405
1!
1#
1%
#1410
0!
0#
0%
#1415
1!
1#
1%
#1420
0!
0#
0%
#1425
1!
1#
1%
#1430
0!
0#
0%
#1435
1!
1#
1%
#1440
0!
0#
0%
#1445
1!
1#
1%
#1450
0!
0#
0%
#1455
1!
1#
1%
0:
#1460
0!
0#
0%
#1465
1!
1#
1%
1:
#1470
0!
0#
0%
#1475
1!
1#
1%
#1480
0!
0#
0%
#1485
1!
1#
1%
#1490
0!
0#
0%
#1495
1!
1#
1%
#1500
0!
0#
0%
#1505
1!
1#
1%
0:
#1510
0!
0#
0%
#1515
1!
1#
1%
#1520
0!
0#
0%
#1525
1!
1#
1%
#1530
0!
0#
0%
#1535
1!
1#
1%
1:
#1540
0!
0#
0%
#1545
1!
1#
1%
#1550
0!
0#
0%
#1555
1!
1#
1%
0:
#1560
0!
0#
0%
#1565
1!
1#
1%
#1570
0!
0#
0%
#1575
1!
1#
1%
1:
#1580
0!
0#
0%
#1585
1!
1#
1%
#1590
0!
0#
0%
#1595
1!
1#
1%
#1600
0!
0#
0%
#1605
1!
1#
1%
#1610
0!
0#
0%
#1615
1!
1#
1%
#1620
0!
0#
0%
#1625
1!
1#
1%
#1630
0!
0#
0%
#1635
1!
1#
1%
#1640
0!
0#
0%
#1645
1!
1#
1%
#1650
0!
0#
0%
#1655
1!
1#
1%
0:
#1660
0!
0#
0%
#1665
1!
1#
1%
1:
#1670
0!
0#
0%
#1675
1!
1#
1%
#1680
0!
0#
0%
#1685
1!
1#
1%
#1690
0!
0#
0%
#1695
1!
1#
1%
#1700
0!
0#
0%
#1705
1!
1#
1%
#1710
0!
0#
0%
#1715
1!
1#
1%
#1720
0!
0#
0%
#1725
1!
1#
1%
#1730
0!
0#
0%
#1735
1!
1#
1%
#1740
0!
0#
0%
#1745
1!
1#
1%
#1750
0!
0#
0%
#1755
1!
1#
1%
#1760
0!
0#
0%
#1765
1!
1#
1%
#1770
0!
0#
0%
#1775
1!
1#
1%
#1780
0!
0#
0%
#1785
1!
1#
1%
0:
#1790
0!
0#
0%
#1795
1!
1#
1%
1:
#1800
0!
0#
0%
#1805
1!
1#
1%
#1810
0!
0#
0%
#1815
1!
1#
1%
#1820
0!
0#
0%
#1825
1!
1#
1%
0:
#1830
0!
0#
0%
#1835
1!
1#
1%
#1840
0!
0#
0%
#1845
1!
1#
1%
1:
#1850
0!
0#
0%
#1855
1!
1#
1%
#1860
0!
0#
0%
#1865
1!
1#
1%
#1870
0!
0#
0%
#1875
1!
1#
1%
#1880
0!
0#
0%
#1885
1!
1#
1%
#1890
0!
0#
0%
#1895
1!
1#
1%
#1900
0!
0#
0%
#1905
1!
1#
1%
#1910
0!
0#
0%
#1915
1!
1#
1%
0:
#1920
0!
0#
0%
#1925
1!
1#
1%
#1930
0!
0#
0%
#1935
1!
1#
1%
1:
